simulation/qsim/Lab8.msim.vcd
$comment
	File created using the following command:
		vcd file Lab8.msim.vcd -direction
$end
$date
	Mon Mar 20 16:27:08 2023
$end
$version
	ModelSim Version 2020.1
$end
$timescale
	1ps
$end

$scope module MUX3bit2to1_vlg_vec_tst $end
$var reg 3 ! A [2:0] $end
$var reg 3 " B [2:0] $end
$var reg 1 # S $end
$var wire 1 $ out [2] $end
$var wire 1 % out [1] $end
$var wire 1 & out [0] $end

$scope module i1 $end
$var wire 1 ' gnd $end
$var wire 1 ( vcc $end
$var wire 1 ) unknown $end
$var tri1 1 * devclrn $end
$var tri1 1 + devpor $end
$var tri1 1 , devoe $end
$var wire 1 - ~QUARTUS_CREATED_GND~I_combout $end
$var wire 1 . ~QUARTUS_CREATED_UNVM~~busy $end
$var wire 1 / ~QUARTUS_CREATED_ADC1~~eoc $end
$var wire 1 0 ~QUARTUS_CREATED_ADC2~~eoc $end
$var wire 1 1 out[0]~output_o $end
$var wire 1 2 out[1]~output_o $end
$var wire 1 3 out[2]~output_o $end
$var wire 1 4 S~input_o $end
$var wire 1 5 A[0]~input_o $end
$var wire 1 6 B[0]~input_o $end
$var wire 1 7 out~0_combout $end
$var wire 1 8 A[1]~input_o $end
$var wire 1 9 B[1]~input_o $end
$var wire 1 : out~1_combout $end
$var wire 1 ; B[2]~input_o $end
$var wire 1 < A[2]~input_o $end
$var wire 1 = out~2_combout $end
$upscope $end
$upscope $end
$enddefinitions $end
#0
$dumpvars
b10 !
b101 "
0#
0&
1%
0$
0'
1(
x)
1*
1+
1,
0-
z.
z/
z0
01
12
03
04
05
16
07
18
09
1:
1;
0<
0=
$end
#50000
1#
14
1=
0:
17
11
02
13
1$
0%
1&
#100000
0#
04
0=
1:
07
01
12
03
0$
1%
0&
#150000
1#
14
1=
0:
17
11
02
13
1$
0%
1&
#200000
0#
04
0=
1:
07
01
12
03
0$
1%
0&
#250000
1#
14
1=
0:
17
11
02
13
1$
0%
1&
#300000
0#
04
0=
1:
07
01
12
03
0$
1%
0&
#350000
1#
14
1=
0:
17
11
02
13
1$
0%
1&
#400000
0#
04
0=
1:
07
01
12
03
0$
1%
0&
#450000
1#
14
1=
0:
17
11
02
13
1$
0%
1&
#500000
0#
04
0=
1:
07
01
12
03
0$
1%
0&
#550000
1#
14
1=
0:
17
11
02
13
1$
0%
1&
#600000
0#
04
0=
1:
07
01
12
03
0$
1%
0&
#650000
1#
14
1=
0:
17
11
02
13
1$
0%
1&
#700000
0#
04
0=
1:
07
01
12
03
0$
1%
0&
#750000
1#
14
1=
0:
17
11
02
13
1$
0%
1&
#800000
0#
04
0=
1:
07
01
12
03
0$
1%
0&
#850000
1#
14
1=
0:
17
11
02
13
1$
0%
1&
#900000
0#
04
0=
1:
07
01
12
03
0$
1%
0&
#950000
1#
14
1=
0:
17
11
02
13
1$
0%
1&
